tmp.out
make[1]: Entering directory '/home/luowen/Programing/ACMtasks/CPU2024'
make[1]: Leaving directory '/home/luowen/Programing/ACMtasks/CPU2024'
VCD info: dumpfile test.vcd opened for output.
         0 00000000 00020137
         1 00000004 0c8000ef
         2 000000cc da56715d
         3 000000ce c0cada56
         4 000000d0 de4ec0ca
         5 000000d2 dc52de4e
         6 000000d4 d85adc52
         7 000000d6 d65ed85a
         8 000000d8 0793d65e
         9 000000da 21400793
        10 000000de c4a2c686
        11 000000e0 c2a6c4a2
        12 000000e2 d462c2a6
        13 000000e4 d266d462
        14 000000e6 d06ad266
        15 000000e8 4711d06a
        16 000000ea 0a934711
        17 000000ec 21400a93
        18 000000f0 46094585
        19 000000f2 468d4609
        20 000000f4 a023468d
        21 000000f6 0007a023
        22 000000fa 0007a223
        23 000000fe 0007a423
        24 00000102 0007a623
        25 00000106 010a8b13
        26 0000010a ca32c82e
        27 0000010c cc36ca32
        28 0000010e ce3acc36
        29 00000110 0933ce3a
        30 00000112 00e10933
        31 00000116 0b9349a5
        32 00000118 02d00b93
        33 0000011c 00030a37
        34 00000120 000aa403
        35 00000124 4f634c01
        36 00000126 0c044f63
        37 0000012a 45a94c81
        38 0000012c 852245a9
        39 0000012e 37b58522
        40 00000130 84e637b5
        41 0000009c 00008293
        42 000000a0 0005ca63
        43 000000a4 00054c63
        44 000000a8 f79ff0ef
        45 00000020 00058613
        46 00000024 00050593
        47 00000028 fff00513
        48 0000002c 02060c63
        49 00000030 00100693
        50 00000034 00b67a63
        51 00000048 00000513
        52 0000004c 00c5e663
        53 00000058 0016d693
        54 0000005c 00165613
        55 00000060 fe0696e3
        56 00000064 00008067
        57 000000ac 00058513
        58 000000b0 00028067
        59 00000132 0c8584e6
        60 00000134 0d330c85
        61 00000136 01990d33
        62 0000013a 03050513
        63 0000013e fead0fa3
        64 00000142 852245a9
        65 00000144 8d228522
        66 00000146 3dc18d22
        67 00000148 842a3dc1
        68 00000018 06054063
        69 0000001c 0605c663
        70 00000020 00058613
        71 00000024 00050593
        72 00000028 fff00513
        73 0000002c 02060c63
        74 00000030 00100693
        75 00000034 00b67a63
        76 00000048 00000513
        77 0000004c 00c5e663
        78 00000058 0016d693
        79 0000005c 00165613
        80 00000060 fe0696e3
        81 00000064 00008067
        82 0000014a c0e3842a
        83 0000014c ffa9c0e3
        84 00000150 000c0763
        85 0000015e 009907b3
        86 00000162 0007c683
        87 00000166 17fd873e
        88 00000168 002317fd
        89 0000016a 00da0023
0        90 0000016e fee91ae3
        91 00000172 96e30a91
        92 00000174 fb6a96e3
        93 00000120 000aa403
        94 00000124 4f634c01
        95 00000126 0c044f63
        96 0000012a 45a94c81
        97 0000012c 852245a9
        98 0000012e 37b58522
        99 00000130 84e637b5
       100 0000009c 00008293
       101 000000a0 0005ca63
       102 000000a4 00054c63
       103 000000a8 f79ff0ef
       104 00000020 00058613
       105 00000024 00050593
       106 00000028 fff00513
       107 0000002c 02060c63
       108 00000030 00100693
       109 00000034 00b67a63
       110 00000048 00000513
       111 0000004c 00c5e663
       112 00000058 0016d693
       113 0000005c 00165613
       114 00000060 fe0696e3
       115 00000064 00008067
       116 000000ac 00058513
       117 000000b0 00028067
       118 00000132 0c8584e6
       119 00000134 0d330c85
       120 00000136 01990d33
       121 0000013a 03050513
       122 0000013e fead0fa3
       123 00000142 852245a9
       124 00000144 8d228522
       125 00000146 3dc18d22
       126 00000148 842a3dc1
       127 00000018 06054063
       128 0000001c 0605c663
       129 00000020 00058613
       130 00000024 00050593
       131 00000028 fff00513
       132 0000002c 02060c63
       133 00000030 00100693
       134 00000034 00b67a63
       135 00000048 00000513
       136 0000004c 00c5e663
       137 00000058 0016d693
       138 0000005c 00165613
       139 00000060 fe0696e3
       140 00000064 00008067
       141 0000014a c0e3842a
       142 0000014c ffa9c0e3
       143 00000150 000c0763
       144 0000015e 009907b3
       145 00000162 0007c683
       146 00000166 17fd873e
       147 00000168 002317fd
       148 0000016a 00da0023
0       149 0000016e fee91ae3
       150 00000172 96e30a91
       151 00000174 fb6a96e3
       152 00000120 000aa403
       153 00000124 4f634c01
       154 00000126 0c044f63
       155 0000012a 45a94c81
       156 0000012c 852245a9
       157 0000012e 37b58522
       158 00000130 84e637b5
       159 0000009c 00008293
       160 000000a0 0005ca63
       161 000000a4 00054c63
       162 000000a8 f79ff0ef
       163 00000020 00058613
       164 00000024 00050593
       165 00000028 fff00513
       166 0000002c 02060c63
       167 00000030 00100693
       168 00000034 00b67a63
       169 00000048 00000513
       170 0000004c 00c5e663
       171 00000058 0016d693
       172 0000005c 00165613
       173 00000060 fe0696e3
       174 00000064 00008067
       175 000000ac 00058513
       176 000000b0 00028067
       177 00000132 0c8584e6
       178 00000134 0d330c85
       179 00000136 01990d33
       180 0000013a 03050513
       181 0000013e fead0fa3
       182 00000142 852245a9
       183 00000144 8d228522
       184 00000146 3dc18d22
       185 00000148 842a3dc1
       186 00000018 06054063
       187 0000001c 0605c663
       188 00000020 00058613
       189 00000024 00050593
       190 00000028 fff00513
       191 0000002c 02060c63
       192 00000030 00100693
       193 00000034 00b67a63
       194 00000048 00000513
       195 0000004c 00c5e663
       196 00000058 0016d693
       197 0000005c 00165613
       198 00000060 fe0696e3
       199 00000064 00008067
       200 0000014a c0e3842a
       201 0000014c ffa9c0e3
       202 00000150 000c0763
       203 0000015e 009907b3
       204 00000162 0007c683
       205 00000166 17fd873e
       206 00000168 002317fd
       207 0000016a 00da0023
0       208 0000016e fee91ae3
       209 00000172 96e30a91
       210 00000174 fb6a96e3
       211 00000120 000aa403
       212 00000124 4f634c01
       213 00000126 0c044f63
       214 0000012a 45a94c81
       215 0000012c 852245a9
       216 0000012e 37b58522
       217 00000130 84e637b5
       218 0000009c 00008293
       219 000000a0 0005ca63
       220 000000a4 00054c63
       221 000000a8 f79ff0ef
       222 00000020 00058613
       223 00000024 00050593
       224 00000028 fff00513
       225 0000002c 02060c63
       226 00000030 00100693
       227 00000034 00b67a63
       228 00000048 00000513
       229 0000004c 00c5e663
       230 00000058 0016d693
       231 0000005c 00165613
       232 00000060 fe0696e3
       233 00000064 00008067
       234 000000ac 00058513
       235 000000b0 00028067
       236 00000132 0c8584e6
       237 00000134 0d330c85
       238 00000136 01990d33
       239 0000013a 03050513
       240 0000013e fead0fa3
       241 00000142 852245a9
       242 00000144 8d228522
       243 00000146 3dc18d22
       244 00000148 842a3dc1
       245 00000018 06054063
       246 0000001c 0605c663
       247 00000020 00058613
       248 00000024 00050593
       249 00000028 fff00513
       250 0000002c 02060c63
       251 00000030 00100693
       252 00000034 00b67a63
       253 00000048 00000513
       254 0000004c 00c5e663
       255 00000058 0016d693
       256 0000005c 00165613
       257 00000060 fe0696e3
       258 00000064 00008067
       259 0000014a c0e3842a
       260 0000014c ffa9c0e3
       261 00000150 000c0763
       262 0000015e 009907b3
       263 00000162 0007c683
       264 00000166 17fd873e
       265 00000168 002317fd
       266 0000016a 00da0023
0       267 0000016e fee91ae3
       268 00000172 96e30a91
       269 00000174 fb6a96e3
       270 00000178 002347a9
       271 0000017a 00fa0023

       272 0000017e 01010b13
       273 00000182 0b934a25
       274 00000184 02d00b93
       275 00000188 00030ab7
       276 0000018c 000b2403
       277 00000190 4d634c01
       278 00000192 06044d63
       279 00000196 45a94981
       280 00000198 852245a9
       281 0000019a 37018522
       282 0000019c 84ce3701
       283 0000009c 00008293
       284 000000a0 0005ca63
       285 000000a4 00054c63
       286 000000a8 f79ff0ef
       287 00000020 00058613
       288 00000024 00050593
       289 00000028 fff00513
       290 0000002c 02060c63
       291 00000030 00100693
       292 00000034 00b67a63
       293 00000048 00000513
       294 0000004c 00c5e663
       295 00000058 0016d693
       296 0000005c 00165613
       297 00000060 fe0696e3
       298 00000064 00008067
       299 000000ac 00058513
       300 000000b0 00028067
       301 0000019e 098584ce
       302 000001a0 0cb30985
       303 000001a2 01390cb3
       304 000001a6 03050513
       305 000001aa feac8fa3
       306 000001ae 852245a9
       307 000001b0 8ca28522
       308 000001b2 35958ca2
       309 000001b4 842a3595
       310 00000018 06054063
       311 0000001c 0605c663
       312 00000020 00058613
       313 00000024 00050593
       314 00000028 fff00513
       315 0000002c 02060c63
       316 00000030 00100693
       317 00000034 00b67a63
       318 00000048 00000513
       319 0000004c 00c5e663
       320 00000058 0016d693
       321 0000005c 00165613
       322 00000060 fe0696e3
       323 00000064 00008067
       324 000001b6 40e3842a
       325 000001b8 ff9a40e3
       326 000001bc 000c0763
       327 000001ca 009907b3
       328 000001ce 0007c683
       329 000001d2 17fd873e
       330 000001d4 802317fd
       331 000001d6 00da8023
0       332 000001da fee91ae3
       333 000001de 101c0b11
       334 000001e0 95e3101c
       335 000001e2 fb6795e3
       336 0000018c 000b2403
       337 00000190 4d634c01
       338 00000192 06044d63
       339 00000196 45a94981
       340 00000198 852245a9
       341 0000019a 37018522
       342 0000019c 84ce3701
       343 0000009c 00008293
       344 000000a0 0005ca63
       345 000000a4 00054c63
       346 000000a8 f79ff0ef
       347 00000020 00058613
       348 00000024 00050593
       349 00000028 fff00513
       350 0000002c 02060c63
       351 00000030 00100693
       352 00000034 00b67a63
       353 00000048 00000513
       354 0000004c 00c5e663
       355 00000058 0016d693
       356 0000005c 00165613
       357 00000060 fe0696e3
       358 00000064 00008067
       359 000000ac 00058513
       360 000000b0 00028067
       361 0000019e 098584ce
       362 000001a0 0cb30985
       363 000001a2 01390cb3
       364 000001a6 03050513
       365 000001aa feac8fa3
       366 000001ae 852245a9
       367 000001b0 8ca28522
       368 000001b2 35958ca2
       369 000001b4 842a3595
       370 00000018 06054063
       371 0000001c 0605c663
       372 00000020 00058613
       373 00000024 00050593
       374 00000028 fff00513
       375 0000002c 02060c63
       376 00000030 00100693
       377 00000034 00b67a63
       378 00000048 00000513
       379 0000004c 00c5e663
       380 00000058 0016d693
       381 0000005c 00165613
       382 00000060 fe0696e3
       383 00000064 00008067
       384 000001b6 40e3842a
       385 000001b8 ff9a40e3
       386 000001bc 000c0763
       387 000001ca 009907b3
       388 000001ce 0007c683
       389 000001d2 17fd873e
       390 000001d4 802317fd
       391 000001d6 00da8023
0       392 000001da fee91ae3
       393 000001de 101c0b11
       394 000001e0 95e3101c
       395 000001e2 fb6795e3
       396 0000018c 000b2403
       397 00000190 4d634c01
       398 00000192 06044d63
       399 00000196 45a94981
       400 00000198 852245a9
       401 0000019a 37018522
       402 0000019c 84ce3701
       403 0000009c 00008293
       404 000000a0 0005ca63
       405 000000a4 00054c63
       406 000000a8 f79ff0ef
       407 00000020 00058613
       408 00000024 00050593
       409 00000028 fff00513
       410 0000002c 02060c63
       411 00000030 00100693
       412 00000034 00b67a63
       413 00000048 00000513
       414 0000004c 00c5e663
       415 00000058 0016d693
       416 0000005c 00165613
       417 00000060 fe0696e3
       418 00000064 00008067
       419 000000ac 00058513
       420 000000b0 00028067
       421 0000019e 098584ce
       422 000001a0 0cb30985
       423 000001a2 01390cb3
       424 000001a6 03050513
       425 000001aa feac8fa3
       426 000001ae 852245a9
       427 000001b0 8ca28522
       428 000001b2 35958ca2
       429 000001b4 842a3595
       430 00000018 06054063
       431 0000001c 0605c663
       432 00000020 00058613
       433 00000024 00050593
       434 00000028 fff00513
       435 0000002c 02060c63
       436 00000030 00100693
       437 00000034 00b67a63
       438 00000048 00000513
       439 0000004c 00c5e663
       440 00000058 0016d693
       441 0000005c 00165613
       442 00000060 fe0696e3
       443 00000064 00008067
       444 000001b6 40e3842a
       445 000001b8 ff9a40e3
       446 000001bc 000c0763
       447 000001ca 009907b3
       448 000001ce 0007c683
       449 000001d2 17fd873e
       450 000001d4 802317fd
       451 000001d6 00da8023
0       452 000001da fee91ae3
       453 000001de 101c0b11
       454 000001e0 95e3101c
       455 000001e2 fb6795e3
       456 0000018c 000b2403
       457 00000190 4d634c01
       458 00000192 06044d63
       459 00000196 45a94981
       460 00000198 852245a9
       461 0000019a 37018522
       462 0000019c 84ce3701
       463 0000009c 00008293
       464 000000a0 0005ca63
       465 000000a4 00054c63
       466 000000a8 f79ff0ef
       467 00000020 00058613
       468 00000024 00050593
       469 00000028 fff00513
       470 0000002c 02060c63
       471 00000030 00100693
       472 00000034 00b67a63
       473 00000048 00000513
       474 0000004c 00c5e663
       475 00000058 0016d693
       476 0000005c 00165613
       477 00000060 fe0696e3
       478 00000064 00008067
       479 000000ac 00058513
       480 000000b0 00028067
       481 0000019e 098584ce
       482 000001a0 0cb30985
       483 000001a2 01390cb3
       484 000001a6 03050513
       485 000001aa feac8fa3
       486 000001ae 852245a9
       487 000001b0 8ca28522
       488 000001b2 35958ca2
       489 000001b4 842a3595
       490 00000018 06054063
       491 0000001c 0605c663
       492 00000020 00058613
       493 00000024 00050593
       494 00000028 fff00513
       495 0000002c 02060c63
       496 00000030 00100693
       497 00000034 00b67a63
       498 00000048 00000513
       499 0000004c 00c5e663
       500 00000058 0016d693
       501 0000005c 00165613
       502 00000060 fe0696e3
       503 00000064 00008067
       504 000001b6 40e3842a
       505 000001b8 ff9a40e3
       506 000001bc 000c0763
       507 000001ca 009907b3
       508 000001ce 0007c683
       509 000001d2 17fd873e
       510 000001d4 802317fd
       511 000001d6 00da8023
0       512 000001da fee91ae3
       513 000001de 101c0b11
       514 000001e0 95e3101c
       515 000001e2 fb6795e3
       516 000001e6 442640b6
       517 000001e8 44964426
       518 000001ea 49064496
       519 000001ec 59f24906
       520 000001ee 5a6259f2
       521 000001f0 5ad25a62
       522 000001f2 5b425ad2
       523 000001f4 5bb25b42
       524 000001f6 5c225bb2
       525 000001f8 5c925c22
       526 000001fa 5d025c92
       527 000001fc 45015d02
       528 000001fe 61614501
       529 00000200 80826161
       530 00000202 04338082
       531 ffb00000 00020137
       532 ffb00004 0c8000ef
       533 ffb000cc da56715d
       534 ffb000ce c0cada56
       535 ffb000d0 de4ec0ca
       536 ffb000d2 dc52de4e
       537 ffb000d4 d85adc52
       538 ffb000d6 d65ed85a
       539 ffb000d8 0793d65e
       540 ffb000da 21400793
       541 ffb000de c4a2c686
       542 ffb000e0 c2a6c4a2
       543 ffb000e2 d462c2a6
       544 ffb000e4 d266d462
       545 ffb000e6 d06ad266
       546 ffb000e8 4711d06a
       547 ffb000ea 0a934711
       548 ffb000ec 21400a93
       549 ffb000f0 46094585
       550 ffb000f2 468d4609
       551 ffb000f4 a023468d
       552 ffb000f6 0007a023
       553 ffb000fa 0007a223
       554 ffb000fe 0007a423
       555 ffb00102 0007a623
       556 ffb00106 010a8b13
       557 ffb0010a ca32c82e
       558 ffb0010c cc36ca32
       559 ffb0010e ce3acc36
       560 ffb00110 0933ce3a
       561 ffb00112 00e10933
       562 ffb00116 0b9349a5
       563 ffb00118 02d00b93
       564 ffb0011c 00030a37
       565 ffb00120 000aa403
       566 ffb00124 4f634c01
       567 ffb00126 0c044f63
       568 ffb0012a 45a94c81
       569 ffb0012c 852245a9
       570 ffb0012e 37b58522
       571 ffb00130 84e637b5
       572 ffb0009c 00008293
       573 ffb000a0 0005ca63
       574 ffb000a4 00054c63
       575 ffb000a8 f79ff0ef
       576 ffb00020 00058613
       577 ffb00024 00050593
       578 ffb00028 fff00513
       579 ffb0002c 02060c63
       580 ffb00030 00100693
       581 ffb00034 00b67a63
       582 ffb00048 00000513
       583 ffb0004c 00c5e663
       584 ffb00058 0016d693
       585 ffb0005c 00165613
       586 ffb00060 fe0696e3
       587 ffb00064 00008067
       588 ffb000ac 00058513
       589 ffb000b0 00028067
       590 ffb00132 0c8584e6
       591 ffb00134 0d330c85
       592 ffb00136 01990d33
       593 ffb0013a 03050513
       594 ffb0013e fead0fa3
       595 ffb00142 852245a9
       596 ffb00144 8d228522
       597 ffb00146 3dc18d22
       598 ffb00148 842a3dc1
       599 ffb00018 06054063
       600 ffb0001c 0605c663
       601 ffb00020 00058613
       602 ffb00024 00050593
       603 ffb00028 fff00513
       604 ffb0002c 02060c63
       605 ffb00030 00100693
       606 ffb00034 00b67a63
       607 ffb00048 00000513
       608 ffb0004c 00c5e663
       609 ffb00058 0016d693
       610 ffb0005c 00165613
       611 ffb00060 fe0696e3
       612 ffb00064 00008067
       613 ffb0014a c0e3842a
       614 ffb0014c ffa9c0e3
       615 ffb00150 000c0763
       616 ffb0015e 009907b3
       617 ffb00162 0007c683
       618 ffb00166 17fd873e
       619 ffb00168 002317fd
       620 ffb0016a 00da0023
0       621 ffb0016e fee91ae3
       622 ffb00172 96e30a91
       623 ffb00174 fb6a96e3
       624 ffb00120 000aa403
       625 ffb00124 4f634c01
       626 ffb00126 0c044f63
       627 ffb0012a 45a94c81
       628 ffb0012c 852245a9
       629 ffb0012e 37b58522
       630 ffb00130 84e637b5
       631 ffb0009c 00008293
       632 ffb000a0 0005ca63
       633 ffb000a4 00054c63
       634 ffb000a8 f79ff0ef
       635 ffb00020 00058613
       636 ffb00024 00050593
       637 ffb00028 fff00513
       638 ffb0002c 02060c63
       639 ffb00030 00100693
       640 ffb00034 00b67a63
       641 ffb00048 00000513
       642 ffb0004c 00c5e663
       643 ffb00058 0016d693
       644 ffb0005c 00165613
       645 ffb00060 fe0696e3
       646 ffb00064 00008067
       647 ffb000ac 00058513
       648 ffb000b0 00028067
       649 ffb00132 0c8584e6
       650 ffb00134 0d330c85
       651 ffb00136 01990d33
       652 ffb0013a 03050513
       653 ffb0013e fead0fa3
       654 ffb00142 852245a9
       655 ffb00144 8d228522
       656 ffb00146 3dc18d22
       657 ffb00148 842a3dc1
       658 ffb00018 06054063
       659 ffb0001c 0605c663
       660 ffb00020 00058613
       661 ffb00024 00050593
       662 ffb00028 fff00513
       663 ffb0002c 02060c63
       664 ffb00030 00100693
       665 ffb00034 00b67a63
       666 ffb00048 00000513
       667 ffb0004c 00c5e663
       668 ffb00058 0016d693
       669 ffb0005c 00165613
       670 ffb00060 fe0696e3
       671 ffb00064 00008067
       672 ffb0014a c0e3842a
       673 ffb0014c ffa9c0e3
       674 ffb00150 000c0763
       675 ffb0015e 009907b3
       676 ffb00162 0007c683
       677 ffb00166 17fd873e
       678 ffb00168 002317fd
       679 ffb0016a 00da0023
0       680 ffb0016e fee91ae3
       681 ffb00172 96e30a91
       682 ffb00174 fb6a96e3
       683 ffb00120 000aa403
       684 ffb00124 4f634c01
       685 ffb00126 0c044f63
       686 ffb0012a 45a94c81
       687 ffb0012c 852245a9
       688 ffb0012e 37b58522
       689 ffb00130 84e637b5
       690 ffb0009c 00008293
       691 ffb000a0 0005ca63
       692 ffb000a4 00054c63
       693 ffb000a8 f79ff0ef
       694 ffb00020 00058613
       695 ffb00024 00050593
       696 ffb00028 fff00513
       697 ffb0002c 02060c63
       698 ffb00030 00100693
       699 ffb00034 00b67a63
       700 ffb00048 00000513
       701 ffb0004c 00c5e663
       702 ffb00058 0016d693
       703 ffb0005c 00165613
       704 ffb00060 fe0696e3
       705 ffb00064 00008067
       706 ffb000ac 00058513
       707 ffb000b0 00028067
       708 ffb00132 0c8584e6
       709 ffb00134 0d330c85
       710 ffb00136 01990d33
       711 ffb0013a 03050513
       712 ffb0013e fead0fa3
       713 ffb00142 852245a9
       714 ffb00144 8d228522
       715 ffb00146 3dc18d22
       716 ffb00148 842a3dc1
       717 ffb00018 06054063
       718 ffb0001c 0605c663
       719 ffb00020 00058613
       720 ffb00024 00050593
       721 ffb00028 fff00513
       722 ffb0002c 02060c63
       723 ffb00030 00100693
       724 ffb00034 00b67a63
       725 ffb00048 00000513
       726 ffb0004c 00c5e663
       727 ffb00058 0016d693
       728 ffb0005c 00165613
       729 ffb00060 fe0696e3
       730 ffb00064 00008067
       731 ffb0014a c0e3842a
       732 ffb0014c ffa9c0e3
       733 ffb00150 000c0763
       734 ffb0015e 009907b3
       735 ffb00162 0007c683
       736 ffb00166 17fd873e
       737 ffb00168 002317fd
       738 ffb0016a 00da0023
0       739 ffb0016e fee91ae3
       740 ffb00172 96e30a91
       741 ffb00174 fb6a96e3
       742 ffb00120 000aa403
       743 ffb00124 4f634c01
       744 ffb00126 0c044f63
       745 ffb0012a 45a94c81
       746 ffb0012c 852245a9
       747 ffb0012e 37b58522
       748 ffb00130 84e637b5
       749 ffb0009c 00008293
       750 ffb000a0 0005ca63
       751 ffb000a4 00054c63
       752 ffb000a8 f79ff0ef
       753 ffb00020 00058613
       754 ffb00024 00050593
       755 ffb00028 fff00513
       756 ffb0002c 02060c63
       757 ffb00030 00100693
       758 ffb00034 00b67a63
       759 ffb00048 00000513
       760 ffb0004c 00c5e663
       761 ffb00058 0016d693
       762 ffb0005c 00165613
       763 ffb00060 fe0696e3
       764 ffb00064 00008067
       765 ffb000ac 00058513
       766 ffb000b0 00028067
       767 ffb00132 0c8584e6
       768 ffb00134 0d330c85
       769 ffb00136 01990d33
       770 ffb0013a 03050513
       771 ffb0013e fead0fa3
       772 ffb00142 852245a9
       773 ffb00144 8d228522
       774 ffb00146 3dc18d22
       775 ffb00148 842a3dc1
       776 ffb00018 06054063
       777 ffb0001c 0605c663
       778 ffb00020 00058613
       779 ffb00024 00050593
       780 ffb00028 fff00513
       781 ffb0002c 02060c63
       782 ffb00030 00100693
       783 ffb00034 00b67a63
       784 ffb00048 00000513
       785 ffb0004c 00c5e663
       786 ffb00058 0016d693
       787 ffb0005c 00165613
       788 ffb00060 fe0696e3
       789 ffb00064 00008067
       790 ffb0014a c0e3842a
       791 ffb0014c ffa9c0e3
       792 ffb00150 000c0763
       793 ffb0015e 009907b3
       794 ffb00162 0007c683
       795 ffb00166 17fd873e
       796 ffb00168 002317fd
       797 ffb0016a 00da0023
0       798 ffb0016e fee91ae3
       799 ffb00172 96e30a91
       800 ffb00174 fb6a96e3
       801 ffb00178 002347a9
       802 ffb0017a 00fa0023

       803 ffb0017e 01010b13
       804 ffb00182 0b934a25
       805 ffb00184 02d00b93
       806 ffb00188 00030ab7
       807 ffb0018c 000b2403
       808 ffb00190 4d634c01
       809 ffb00192 06044d63
       810 ffb00196 45a94981
       811 ffb00198 852245a9
       812 ffb0019a 37018522
       813 ffb0019c 84ce3701
       814 ffb0009c 00008293
       815 ffb000a0 0005ca63
       816 ffb000a4 00054c63
       817 ffb000a8 f79ff0ef
       818 ffb00020 00058613
       819 ffb00024 00050593
       820 ffb00028 fff00513
       821 ffb0002c 02060c63
       822 ffb00030 00100693
       823 ffb00034 00b67a63
       824 ffb00048 00000513
       825 ffb0004c 00c5e663
       826 ffb00058 0016d693
       827 ffb0005c 00165613
       828 ffb00060 fe0696e3
       829 ffb00064 00008067
       830 ffb000ac 00058513
       831 ffb000b0 00028067
       832 ffb0019e 098584ce
       833 ffb001a0 0cb30985
       834 ffb001a2 01390cb3
       835 ffb001a6 03050513
       836 ffb001aa feac8fa3
       837 ffb001ae 852245a9
       838 ffb001b0 8ca28522
       839 ffb001b2 35958ca2
       840 ffb001b4 842a3595
       841 ffb00018 06054063
       842 ffb0001c 0605c663
       843 ffb00020 00058613
       844 ffb00024 00050593
       845 ffb00028 fff00513
       846 ffb0002c 02060c63
       847 ffb00030 00100693
       848 ffb00034 00b67a63
       849 ffb00048 00000513
       850 ffb0004c 00c5e663
       851 ffb00058 0016d693
       852 ffb0005c 00165613
       853 ffb00060 fe0696e3
       854 ffb00064 00008067
       855 ffb001b6 40e3842a
       856 ffb001b8 ff9a40e3
       857 ffb001bc 000c0763
       858 ffb001ca 009907b3
       859 ffb001ce 0007c683
       860 ffb001d2 17fd873e
       861 ffb001d4 802317fd
       862 ffb001d6 00da8023
0       863 ffb001da fee91ae3
       864 ffb001de 101c0b11
       865 ffb001e0 95e3101c
       866 ffb001e2 fb6795e3
       867 ffb0018c 000b2403
       868 ffb00190 4d634c01
       869 ffb00192 06044d63
       870 ffb00196 45a94981
       871 ffb00198 852245a9
       872 ffb0019a 37018522
       873 ffb0019c 84ce3701
       874 ffb0009c 00008293
       875 ffb000a0 0005ca63
       876 ffb000a4 00054c63
       877 ffb000a8 f79ff0ef
       878 ffb00020 00058613
       879 ffb00024 00050593
       880 ffb00028 fff00513
       881 ffb0002c 02060c63
       882 ffb00030 00100693
       883 ffb00034 00b67a63
       884 ffb00048 00000513
       885 ffb0004c 00c5e663
       886 ffb00058 0016d693
       887 ffb0005c 00165613
       888 ffb00060 fe0696e3
       889 ffb00064 00008067
       890 ffb000ac 00058513
       891 ffb000b0 00028067
       892 ffb0019e 098584ce
       893 ffb001a0 0cb30985
       894 ffb001a2 01390cb3
       895 ffb001a6 03050513
       896 ffb001aa feac8fa3
       897 ffb001ae 852245a9
       898 ffb001b0 8ca28522
       899 ffb001b2 35958ca2
       900 ffb001b4 842a3595
       901 ffb00018 06054063
       902 ffb0001c 0605c663
       903 ffb00020 00058613
       904 ffb00024 00050593
       905 ffb00028 fff00513
       906 ffb0002c 02060c63
       907 ffb00030 00100693
       908 ffb00034 00b67a63
       909 ffb00048 00000513
       910 ffb0004c 00c5e663
       911 ffb00058 0016d693
       912 ffb0005c 00165613
       913 ffb00060 fe0696e3
       914 ffb00064 00008067
       915 ffb001b6 40e3842a
       916 ffb001b8 ff9a40e3
       917 ffb001bc 000c0763
       918 ffb001ca 009907b3
       919 ffb001ce 0007c683
       920 ffb001d2 17fd873e
       921 ffb001d4 802317fd
       922 ffb001d6 00da8023
0       923 ffb001da fee91ae3
       924 ffb001de 101c0b11
       925 ffb001e0 95e3101c
       926 ffb001e2 fb6795e3
       927 ffb0018c 000b2403
       928 ffb00190 4d634c01
       929 ffb00192 06044d63
       930 ffb00196 45a94981
       931 ffb00198 852245a9
       932 ffb0019a 37018522
       933 ffb0019c 84ce3701
       934 ffb0009c 00008293
       935 ffb000a0 0005ca63
       936 ffb000a4 00054c63
       937 ffb000a8 f79ff0ef
       938 ffb00020 00058613
       939 ffb00024 00050593
       940 ffb00028 fff00513
       941 ffb0002c 02060c63
       942 ffb00030 00100693
       943 ffb00034 00b67a63
       944 ffb00048 00000513
       945 ffb0004c 00c5e663
       946 ffb00058 0016d693
       947 ffb0005c 00165613
       948 ffb00060 fe0696e3
       949 ffb00064 00008067
       950 ffb000ac 00058513
       951 ffb000b0 00028067
       952 ffb0019e 098584ce
       953 ffb001a0 0cb30985
       954 ffb001a2 01390cb3
       955 ffb001a6 03050513
       956 ffb001aa feac8fa3
       957 ffb001ae 852245a9
       958 ffb001b0 8ca28522
       959 ffb001b2 35958ca2
       960 ffb001b4 842a3595
       961 ffb00018 06054063
       962 ffb0001c 0605c663
       963 ffb00020 00058613
       964 ffb00024 00050593
       965 ffb00028 fff00513
       966 ffb0002c 02060c63
       967 ffb00030 00100693
       968 ffb00034 00b67a63
       969 ffb00048 00000513
       970 ffb0004c 00c5e663
       971 ffb00058 0016d693
       972 ffb0005c 00165613
       973 ffb00060 fe0696e3
       974 ffb00064 00008067
       975 ffb001b6 40e3842a
       976 ffb001b8 ff9a40e3
       977 ffb001bc 000c0763
       978 ffb001ca 009907b3
       979 ffb001ce 0007c683
       980 ffb001d2 17fd873e
       981 ffb001d4 802317fd
       982 ffb001d6 00da8023
0       983 ffb001da fee91ae3
       984 ffb001de 101c0b11
       985 ffb001e0 95e3101c
       986 ffb001e2 fb6795e3
       987 ffb0018c 000b2403
       988 ffb00190 4d634c01
       989 ffb00192 06044d63
       990 ffb00196 45a94981
       991 ffb00198 852245a9
       992 ffb0019a 37018522
       993 ffb0019c 84ce3701
       994 ffb0009c 00008293
       995 ffb000a0 0005ca63
       996 ffb000a4 00054c63
       997 ffb000a8 f79ff0ef
       998 ffb00020 00058613
       999 ffb00024 00050593
      1000 ffb00028 fff00513
00000
00000000
0000** VVP Stop(0) **
** Flushing output streams.
** Current simulation time is 30461000 ticks.
[?2004h> ^Z[?2004l[?2004h[?2004hd56533
00000058 0016d693
0000005c 00165613
00000060 fe0696e3
0000004c 00c5e663
00000058 0016d693
0000005c 00165613
00000060 fe0696e3
0000004c 00c5e663
00000050 40c585b3
00000054 00d56533
00000058 0016d693
0000005c 00165613
00000060 fe0696e3
00000064 00008067
0000014a c0e3842a
0000014c ffa9c0e3
0000012c 852245a9
0000012e 37b58522
00000130 84e637b5
0000009c 00008293
000000a0 0005ca63
000000a4 00054c63
000000a8 f79ff0ef
00000020 00058613
00000024 00050593
00000028 fff00513
0000002c 02060c63
00000030 00100693
00000034 00b67a63
00000048 00000513
0000004c 00c5e663
00000058 0016d693
0000005c 00165613
00000060 fe0696e3
00000064 00008067
000000ac 00058513
000000b0 00028067
00000132 0c8584e6
00000134 0d330c85
00000136 01990d33
0000013a 03050513
0000013e fead0fa3
00000142 852245a9
00000144 8d228522
00000146 3dc18d22
00000148 842a3dc1
00000018 06054063
0000001c 0605c663
00000020 00058613
00000024 00050593
00000028 fff00513
0000002c 02060c63
00000030 00100693
00000034 00b67a63
00000038 00c05863
0000003c 00161613
00000040 00169693
00000044 feb66ae3
00000038 00c05863
0000003c 00161613
00000040 00169693
00000044 feb66ae3
00000038 00c05863
0000003c 00161613
00000040 00169693
00000044 feb66ae3
00000048 00000513
0000004c 00c5e663
00000058 0016d693
0000005c 00165613
00000060 fe0696e3
0000004c 00c5e663
00000050 40c585b3
00000054 00d56533
00000058 0016d693
0000005c 00165613
00000060 fe0696e3
0000004c 00c5e663
00000058 0016d693
0000005c 00165613
00000060 fe0696e3
0000004c 00c5e663
00000050 40c585b3
00000054 00d56533
00000058 0016d693
0000005c 00165613
00000060 fe0696e3
00000064 00008067
0000014a c0e3842a
0000014c ffa9c0e3
0000012c 852245a9
0000012e 37b58522
00000130 84e637b5
VCD info: dumpfile test.vcd opened for output.
00000000 00020137
00000004 0c8000ef
000000cc da56715d
000000ce c0cada56
000000d0 de4ec0ca
000000d2 dc52de4e
000000d4 d85adc52
000000d6 d65ed85a
000000d8 0793d65e
000000da 21400793
000000de c4a2c686
000000e0 c2a6c4a2
000000e2 d462c2a6
000000e4 d266d462
